{
    "meta": {
        "site_name": "Binyamin's Journal",
        "site_description": "",
        "author": "Binyamin Green"
    },
    "footer_links": [
        {
            "title": "GitHub",
            "icon": "github",
            "url": "https://github.com/binyamin"
        },
        {
            "title": "Homepage",
            "icon": "globe",
            "url": "https://binyam.in"
        },
        {
            "title": "RSS Feed",
            "icon": "rss",
            "url": "/feed.xml"
        }
    ]
}